<?xml version="1.0" encoding="UTF-8" standalone="no"?>
<!-- Generator: Adobe Illustrator 15.1.0, SVG Export Plug-In  -->

<svg
   xmlns:dc="http://purl.org/dc/elements/1.1/"
   xmlns:cc="http://creativecommons.org/ns#"
   xmlns:rdf="http://www.w3.org/1999/02/22-rdf-syntax-ns#"
   xmlns:svg="http://www.w3.org/2000/svg"
   xmlns="http://www.w3.org/2000/svg"
   xmlns:sodipodi="http://sodipodi.sourceforge.net/DTD/sodipodi-0.dtd"
   xmlns:inkscape="http://www.inkscape.org/namespaces/inkscape"
   version="1.1"
   x="0px"
   y="0px"
   width="16px"
   height="16px"
   viewBox="0 0 16 16"
   style="overflow:visible;enable-background:new 0 0 16 16;"
   xml:space="preserve"
   preserveAspectRatio="xMinYMid meet"
   id="svg4411"
   inkscape:version="0.91 r13725"
   sodipodi:docname="badge.svg"><metadata
     id="metadata4419"><rdf:RDF><cc:Work
         rdf:about=""><dc:format>image/svg+xml</dc:format><dc:type
           rdf:resource="http://purl.org/dc/dcmitype/StillImage" /><dc:title></dc:title></cc:Work></rdf:RDF></metadata><sodipodi:namedview
     pagecolor="#ffffff"
     bordercolor="#666666"
     borderopacity="1"
     objecttolerance="10"
     gridtolerance="10"
     guidetolerance="10"
     inkscape:pageopacity="0"
     inkscape:pageshadow="2"
     inkscape:window-width="1920"
     inkscape:window-height="1004"
     id="namedview4417"
     showgrid="false"
     inkscape:zoom="14.75"
     inkscape:cx="-3.6610169"
     inkscape:cy="8"
     inkscape:window-x="0"
     inkscape:window-y="24"
     inkscape:window-maximized="1"
     inkscape:current-layer="svg4411" /><defs
     id="defs4413" /><path
     style="fill:#ffc33d;fill-opacity:1"
     d="M10.5,9.6c0.7-0.2,1.4-0.5,2-0.9c2.5-1.5,4-3.7,3.3-4.9c-0.4-0.8-1.6-1-2.9-0.7  c0.1-0.7,0.2-1.4,0.2-2c0-0.4,0-0.7,0-1c0,0-1.6,0.8-5,0.7C4.7,0.7,3,0,3,0c0,0.3,0,0.7,0,1c0,0.7,0.1,1.4,0.2,2.1  c-1.4-0.3-2.6,0-3,0.7C-0.5,5.1,1,7.3,3.5,8.7c0.6,0.4,1.3,0.7,1.9,0.9c0.6,1.1,1.1,2.1,1.5,2.8C7,12.5,7,12.8,6.8,13H5l-2,3H13  l-2-3H9.1c-0.2-0.2-0.2-0.5-0.1-0.6C9.3,11.7,9.8,10.8,10.5,9.6z M14.5,4.6c0.2,0.6-0.8,1.7-2.7,2.8c-0.1,0.1-0.2,0.1-0.3,0.2  c0.4-0.9,0.8-1.9,1.1-2.9C13.5,4.3,14.3,4.2,14.5,4.6z M4.2,7.4c-2-1.1-3-2.2-2.7-2.8c0.2-0.4,1-0.3,2,0.1c0.3,1,0.6,2,1,2.9  C4.4,7.5,4.3,7.5,4.2,7.4z"
     id="path4415" /></svg>